{
  "Admin": {
    "email": "admin@admin.com",
    "password": "123456"
  },
  "Charges": {
    "deliveryFeePerKm": 57,
    "freeDeliveryRadius": 75,
    "maxRadius": 10000,
    "taxes": 20
  },
  "RestaurantDetails": {
    "address": "292, Ravi Block Allama Iqbal Town, Lahore, Punjab 54000, Pakistan",
    "lat": "32.6499858",
    "lng": "74.2151811",
    "logo": "https://firebasestorage.googleapis.com/v0/b/foodizm-android-877a3.appspot.com/o/RestaurantLogo%2F1636452393626.jpg?alt=media&token=bad63978-a3db-4fcc-866f-7e0095abbac3",
    "name": "Food Paradise",
    "phoneNumber": "+923187149157"
  }
}